EESchema Schematic File Version 2
LIBS:power
LIBS:device
LIBS:switches
LIBS:relays
LIBS:motors
LIBS:transistors
LIBS:conn
LIBS:linear
LIBS:regul
LIBS:74xx
LIBS:cmos4000
LIBS:adc-dac
LIBS:memory
LIBS:xilinx
LIBS:microcontrollers
LIBS:dsp
LIBS:microchip
LIBS:analog_switches
LIBS:motorola
LIBS:texas
LIBS:intel
LIBS:audio
LIBS:interface
LIBS:digital-audio
LIBS:philips
LIBS:display
LIBS:cypress
LIBS:siliconi
LIBS:opto
LIBS:atmel
LIBS:contrib
LIBS:valves
LIBS:tinystick-cache
EELAYER 25 0
EELAYER END
$Descr A4 11693 8268
encoding utf-8
Sheet 1 1
Title "TinyStick"
Date "2018-07-31"
Rev "0.0.1"
Comp "NerySec"
Comment1 "an ATtiny85 usb stick"
Comment2 "(C) Kyra Zimmer"
Comment3 "License: MIT"
Comment4 ""
$EndDescr
$Comp
L ATTINY85-20SU U1
U 1 1 5B5F9045
P 5200 2800
F 0 "U1" H 4050 3200 50  0000 C CNN
F 1 "ATTINY85-20SU" H 6200 2400 50  0000 C CNN
F 2 "Housings_SOIC:SOIC-8_3.9x4.9mm_Pitch1.27mm" H 6150 2800 50  0001 C CIN
F 3 "" H 5200 2800 50  0001 C CNN
	1    5200 2800
	1    0    0    -1  
$EndComp
$Comp
L AVR-ISP-6 ISP1
U 1 1 5B5F91EF
P 4200 1650
F 0 "ISP1" H 4095 1890 50  0000 C CNN
F 1 "AVR-ISP-6" H 3935 1420 50  0000 L BNN
F 2 "Pin_Headers:Pin_Header_Straight_2x03_Pitch2.54mm" V 3680 1690 50  0001 C CNN
F 3 "" H 4175 1650 50  0001 C CNN
	1    4200 1650
	1    0    0    -1  
$EndComp
$Comp
L GNDREF #PWR10
U 1 1 5B5F9344
P 4800 1750
F 0 "#PWR10" H 4800 1500 50  0001 C CNN
F 1 "GNDREF" H 4800 1600 50  0000 C CNN
F 2 "" H 4800 1750 50  0001 C CNN
F 3 "" H 4800 1750 50  0001 C CNN
	1    4800 1750
	1    0    0    -1  
$EndComp
$Comp
L VCC #PWR9
U 1 1 5B5F938A
P 4800 1550
F 0 "#PWR9" H 4800 1400 50  0001 C CNN
F 1 "VCC" H 4800 1700 50  0000 C CNN
F 2 "" H 4800 1550 50  0001 C CNN
F 3 "" H 4800 1550 50  0001 C CNN
	1    4800 1550
	1    0    0    -1  
$EndComp
Text Label 4800 1650 0    60   ~ 0
ISP_MOSI
Text Label 3500 1550 2    60   ~ 0
ISP_MISO
Text Label 3500 1650 2    60   ~ 0
ISP_SCK
Text Label 3500 1750 2    60   ~ 0
ISP_RST
$Comp
L GNDREF #PWR14
U 1 1 5B5F95CD
P 6750 3050
F 0 "#PWR14" H 6750 2800 50  0001 C CNN
F 1 "GNDREF" H 6750 2900 50  0000 C CNN
F 2 "" H 6750 3050 50  0001 C CNN
F 3 "" H 6750 3050 50  0001 C CNN
	1    6750 3050
	1    0    0    -1  
$EndComp
$Comp
L VCC #PWR13
U 1 1 5B5F9650
P 6750 2550
F 0 "#PWR13" H 6750 2400 50  0001 C CNN
F 1 "VCC" H 6750 2700 50  0000 C CNN
F 2 "" H 6750 2550 50  0001 C CNN
F 3 "" H 6750 2550 50  0001 C CNN
	1    6750 2550
	1    0    0    -1  
$EndComp
$Comp
L C C2
U 1 1 5B5F9672
P 6800 2800
F 0 "C2" H 6825 2900 50  0000 L CNN
F 1 ".1uF" H 6825 2700 50  0000 L CNN
F 2 "Capacitors_SMD:C_0603_HandSoldering" H 6838 2650 50  0001 C CNN
F 3 "" H 6800 2800 50  0001 C CNN
	1    6800 2800
	1    0    0    -1  
$EndComp
$Comp
L CP C1
U 1 1 5B5F96BE
P 1550 4550
F 0 "C1" H 1575 4650 50  0000 L CNN
F 1 "10uF" H 1575 4450 50  0000 L CNN
F 2 "Capacitors_Tantalum_SMD:CP_Tantalum_Case-A_EIA-3216-18_Hand" H 1588 4400 50  0001 C CNN
F 3 "" H 1550 4550 50  0001 C CNN
	1    1550 4550
	1    0    0    -1  
$EndComp
Text Label 3850 3050 2    60   ~ 0
ISP_RST
$Comp
L USB_A J1
U 1 1 5B5F98D6
P 2300 4600
F 0 "J1" H 2100 5050 50  0000 L CNN
F 1 "USB_A" H 2100 4950 50  0000 L CNN
F 2 "my-footprints:USBA-PCB" H 2450 4550 50  0001 C CNN
F 3 "" H 2450 4550 50  0001 C CNN
	1    2300 4600
	1    0    0    -1  
$EndComp
$Comp
L VBUS #PWR5
U 1 1 5B5F9B22
P 2800 4400
F 0 "#PWR5" H 2800 4250 50  0001 C CNN
F 1 "VBUS" H 2800 4550 50  0000 C CNN
F 2 "" H 2800 4400 50  0001 C CNN
F 3 "" H 2800 4400 50  0001 C CNN
	1    2800 4400
	1    0    0    -1  
$EndComp
$Comp
L GNDREF #PWR4
U 1 1 5B5F9B82
P 2300 5100
F 0 "#PWR4" H 2300 4850 50  0001 C CNN
F 1 "GNDREF" H 2300 4950 50  0000 C CNN
F 2 "" H 2300 5100 50  0001 C CNN
F 3 "" H 2300 5100 50  0001 C CNN
	1    2300 5100
	1    0    0    -1  
$EndComp
NoConn ~ 2200 5000
Text Label 3700 4600 0    60   ~ 0
USB_D+
Text Label 3700 4800 0    60   ~ 0
USB_D-
Text Label 3850 2650 2    60   ~ 0
ISP_MISO
Text Label 3850 2550 2    60   ~ 0
ISP_MOSI
Text Label 3850 2750 2    60   ~ 0
ISP_SCK
Text Label 3350 2550 2    60   ~ 0
USB_D-
Text Label 3350 2750 2    60   ~ 0
USB_D+
$Comp
L R R2
U 1 1 5B5F9D77
P 3550 4600
F 0 "R2" V 3630 4600 50  0000 C CNN
F 1 "68" V 3550 4600 50  0000 C CNN
F 2 "Resistors_SMD:R_0603_HandSoldering" V 3480 4600 50  0001 C CNN
F 3 "" H 3550 4600 50  0001 C CNN
	1    3550 4600
	0    1    1    0   
$EndComp
$Comp
L R R3
U 1 1 5B5FA0C7
P 3550 4800
F 0 "R3" V 3630 4800 50  0000 C CNN
F 1 "68" V 3550 4800 50  0000 C CNN
F 2 "Resistors_SMD:R_0603_HandSoldering" V 3480 4800 50  0001 C CNN
F 3 "" H 3550 4800 50  0001 C CNN
	1    3550 4800
	0    1    1    0   
$EndComp
Wire Wire Line
	4300 1550 4800 1550
Wire Wire Line
	4300 1650 4800 1650
Wire Wire Line
	4300 1750 4800 1750
Wire Wire Line
	4050 1550 3500 1550
Wire Wire Line
	4050 1650 3500 1650
Wire Wire Line
	4050 1750 3500 1750
Wire Wire Line
	6550 3050 6800 3050
Wire Wire Line
	6550 2550 6800 2550
Wire Wire Line
	6800 2550 6800 2650
Connection ~ 6750 2550
Wire Wire Line
	6800 3050 6800 2950
Connection ~ 6750 3050
Wire Wire Line
	2600 4400 2800 4400
Wire Wire Line
	2300 5000 2300 5100
Wire Wire Line
	2850 2750 3850 2750
Wire Wire Line
	2850 2550 3850 2550
$Comp
L R R1
U 1 1 5B5FA18B
P 3300 4400
F 0 "R1" V 3380 4400 50  0000 C CNN
F 1 "1K5" V 3300 4400 50  0000 C CNN
F 2 "Resistors_SMD:R_0603_HandSoldering" V 3230 4400 50  0001 C CNN
F 3 "" H 3300 4400 50  0001 C CNN
	1    3300 4400
	1    0    0    -1  
$EndComp
$Comp
L VCC #PWR8
U 1 1 5B5FA2F4
P 3300 4250
F 0 "#PWR8" H 3300 4100 50  0001 C CNN
F 1 "VCC" H 3300 4400 50  0000 C CNN
F 2 "" H 3300 4250 50  0001 C CNN
F 3 "" H 3300 4250 50  0001 C CNN
	1    3300 4250
	1    0    0    -1  
$EndComp
Wire Wire Line
	3300 4550 3300 4800
Wire Wire Line
	2600 4800 3400 4800
Wire Wire Line
	3400 4600 2600 4600
Wire Wire Line
	2600 4800 2600 4700
Connection ~ 3300 4800
$Comp
L D_Zener D2
U 1 1 5B5FA3F2
P 3150 5050
F 0 "D2" H 3150 5150 50  0000 C CNN
F 1 "3V6" H 3150 4950 50  0000 C CNN
F 2 "Diodes_SMD:D_SOD-323_HandSoldering" H 3150 5050 50  0001 C CNN
F 3 "" H 3150 5050 50  0001 C CNN
	1    3150 5050
	0    1    1    0   
$EndComp
$Comp
L D_Zener D1
U 1 1 5B5FA507
P 2850 5050
F 0 "D1" H 2850 5150 50  0000 C CNN
F 1 "3V6" H 2850 4950 50  0000 C CNN
F 2 "Diodes_SMD:D_SOD-323_HandSoldering" H 2850 5050 50  0001 C CNN
F 3 "" H 2850 5050 50  0001 C CNN
	1    2850 5050
	0    1    1    0   
$EndComp
Wire Wire Line
	3150 4800 3150 4900
Connection ~ 3150 4800
Wire Wire Line
	2850 4600 2850 4900
Connection ~ 2850 4600
$Comp
L GNDREF #PWR6
U 1 1 5B5FA711
P 2850 5200
F 0 "#PWR6" H 2850 4950 50  0001 C CNN
F 1 "GNDREF" H 2850 5050 50  0000 C CNN
F 2 "" H 2850 5200 50  0001 C CNN
F 3 "" H 2850 5200 50  0001 C CNN
	1    2850 5200
	1    0    0    -1  
$EndComp
$Comp
L GNDREF #PWR7
U 1 1 5B5FA73A
P 3150 5200
F 0 "#PWR7" H 3150 4950 50  0001 C CNN
F 1 "GNDREF" H 3150 5050 50  0000 C CNN
F 2 "" H 3150 5200 50  0001 C CNN
F 3 "" H 3150 5200 50  0001 C CNN
	1    3150 5200
	1    0    0    -1  
$EndComp
$Comp
L VBUS #PWR3
U 1 1 5B5FAB9D
P 1650 4300
F 0 "#PWR3" H 1650 4150 50  0001 C CNN
F 1 "VBUS" H 1650 4450 50  0000 C CNN
F 2 "" H 1650 4300 50  0001 C CNN
F 3 "" H 1650 4300 50  0001 C CNN
	1    1650 4300
	1    0    0    -1  
$EndComp
$Comp
L VCC #PWR1
U 1 1 5B5FABC5
P 1450 4300
F 0 "#PWR1" H 1450 4150 50  0001 C CNN
F 1 "VCC" H 1450 4450 50  0000 C CNN
F 2 "" H 1450 4300 50  0001 C CNN
F 3 "" H 1450 4300 50  0001 C CNN
	1    1450 4300
	1    0    0    -1  
$EndComp
$Comp
L GNDREF #PWR2
U 1 1 5B5FABED
P 1550 4700
F 0 "#PWR2" H 1550 4450 50  0001 C CNN
F 1 "GNDREF" H 1550 4550 50  0000 C CNN
F 2 "" H 1550 4700 50  0001 C CNN
F 3 "" H 1550 4700 50  0001 C CNN
	1    1550 4700
	1    0    0    -1  
$EndComp
Wire Wire Line
	1450 4300 1450 4350
Wire Wire Line
	1450 4350 1650 4350
Wire Wire Line
	1650 4350 1650 4300
Wire Wire Line
	1550 4350 1550 4400
Connection ~ 1550 4350
Text Label 4750 4150 2    60   ~ 0
PB0
Text Label 4750 4250 2    60   ~ 0
PB1
Text Label 4750 4350 2    60   ~ 0
PB2
Text Label 4750 4450 2    60   ~ 0
PB3
Text Label 4750 4550 2    60   ~ 0
PB4
Text Label 4750 4650 2    60   ~ 0
PB5
Wire Wire Line
	3850 2650 2850 2650
Wire Wire Line
	3850 2850 2850 2850
Wire Wire Line
	3850 2950 2850 2950
Wire Wire Line
	2850 3050 3850 3050
$Comp
L Conn_01x06 PB1
U 1 1 5B5FC17B
P 4950 4350
F 0 "PB1" H 4950 4650 50  0000 C CNN
F 1 "Conn_01x06" H 4950 3950 50  0000 C CNN
F 2 "Pin_Headers:Pin_Header_Straight_2x03_Pitch2.54mm" H 4950 4350 50  0001 C CNN
F 3 "" H 4950 4350 50  0001 C CNN
	1    4950 4350
	1    0    0    -1  
$EndComp
Text Label 2850 2550 2    60   ~ 0
PB0
Text Label 2850 2650 2    60   ~ 0
PB1
Text Label 2850 2750 2    60   ~ 0
PB2
Text Label 2850 2950 2    60   ~ 0
PB4
Text Label 2850 2850 2    60   ~ 0
PB3
Text Label 2850 3050 2    60   ~ 0
PB5
$Comp
L Conn_01x02 VG1
U 1 1 5B5FAEF7
P 6000 4200
F 0 "VG1" H 6000 4300 50  0000 C CNN
F 1 "Conn_01x02" H 6000 4000 50  0000 C CNN
F 2 "Pin_Headers:Pin_Header_Straight_2x01_Pitch2.54mm" H 6000 4200 50  0001 C CNN
F 3 "" H 6000 4200 50  0001 C CNN
	1    6000 4200
	1    0    0    -1  
$EndComp
$Comp
L VCC #PWR11
U 1 1 5B5FAFD0
P 5800 4200
F 0 "#PWR11" H 5800 4050 50  0001 C CNN
F 1 "VCC" H 5800 4350 50  0000 C CNN
F 2 "" H 5800 4200 50  0001 C CNN
F 3 "" H 5800 4200 50  0001 C CNN
	1    5800 4200
	1    0    0    -1  
$EndComp
$Comp
L GNDREF #PWR12
U 1 1 5B5FB0AD
P 5800 4300
F 0 "#PWR12" H 5800 4050 50  0001 C CNN
F 1 "GNDREF" H 5800 4150 50  0000 C CNN
F 2 "" H 5800 4300 50  0001 C CNN
F 3 "" H 5800 4300 50  0001 C CNN
	1    5800 4300
	1    0    0    -1  
$EndComp
$EndSCHEMATC
